{
	"info": {
		"_postman_id": "67fbe3c0-18b7-45f7-83a4-e018c9ac477b",
		"name": "Enttregable1 API Entity",
		"schema": "https://schema.getpostman.com/json/collection/v2.1.0/collection.json"
	},
	"item": [
		{
			"name": "Entity ObtenerListaProductos",
			"request": {
				"method": "GET",
				"header": [],
				"url": {
					"raw": "http://localhost:9999/entregable1/v1/productose/",
					"protocol": "http",
					"host": [
						"localhost"
					],
					"port": "9999",
					"path": [
						"entregable1",
						"v1",
						"productose",
						""
					]
				}
			},
			"response": []
		},
		{
			"name": "Entity ObtenerListaProveedores",
			"request": {
				"method": "GET",
				"header": [],
				"url": {
					"raw": "http://localhost:9999/entregable1/v1/productose/",
					"protocol": "http",
					"host": [
						"localhost"
					],
					"port": "9999",
					"path": [
						"entregable1",
						"v1",
						"productose",
						""
					]
				}
			},
			"response": []
		},
		{
			"name": "EntityGetProducto1",
			"request": {
				"method": "GET",
				"header": [],
				"url": null
			},
			"response": []
		},
		{
			"name": "EntityGetProveedor1",
			"request": {
				"method": "GET",
				"header": [],
				"url": null
			},
			"response": []
		},
		{
			"name": "EntityAddProducto1",
			"request": {
				"method": "POST",
				"header": [],
				"body": {
					"mode": "raw",
					"raw": "{\r\n    \"nombre\": \"Camisas\",\r\n    \"precio\": 500.0,\r\n    \"cantidad\": 50.0\r\n}",
					"options": {
						"raw": {
							"language": "json"
						}
					}
				},
				"url": {
					"raw": "http://localhost:9999/entregable1/v1/productose/2",
					"protocol": "http",
					"host": [
						"localhost"
					],
					"port": "9999",
					"path": [
						"entregable1",
						"v1",
						"productose",
						"2"
					]
				}
			},
			"response": []
		},
		{
			"name": "EntityAddProducto1 User",
			"protocolProfileBehavior": {
				"disableBodyPruning": true
			},
			"request": {
				"method": "GET",
				"header": [],
				"body": {
					"mode": "raw",
					"raw": "{\r\n    \"nombre\": \"Camisas\",\r\n    \"precio\": 500.0,\r\n    \"cantidad\": 50.0\r\n}",
					"options": {
						"raw": {
							"language": "json"
						}
					}
				},
				"url": {
					"raw": "http://localhost:9999/entregable1/v1/productose/2/users",
					"protocol": "http",
					"host": [
						"localhost"
					],
					"port": "9999",
					"path": [
						"entregable1",
						"v1",
						"productose",
						"2",
						"users"
					]
				}
			},
			"response": []
		},
		{
			"name": "EntityAddProveedor1",
			"request": {
				"method": "POST",
				"header": [],
				"body": {
					"mode": "raw",
					"raw": "{\r\n    \"nombre\": \"Camisas\",\r\n    \"precio\": 500.0,\r\n    \"cantidad\": 50.0\r\n}",
					"options": {
						"raw": {
							"language": "json"
						}
					}
				},
				"url": {
					"raw": "http://localhost:9999/entregable1/v1/productose/2",
					"protocol": "http",
					"host": [
						"localhost"
					],
					"port": "9999",
					"path": [
						"entregable1",
						"v1",
						"productose",
						"2"
					]
				}
			},
			"response": []
		},
		{
			"name": "EntityUpdateProducto1",
			"request": {
				"method": "PUT",
				"header": [],
				"url": {
					"raw": "http://localhost:9999/entregable1/v1/productose/2",
					"protocol": "http",
					"host": [
						"localhost"
					],
					"port": "9999",
					"path": [
						"entregable1",
						"v1",
						"productose",
						"2"
					]
				}
			},
			"response": []
		},
		{
			"name": "EntityUpdateProducto1 Patch",
			"request": {
				"method": "PUT",
				"header": [],
				"url": {
					"raw": "http://localhost:9999/entregable1/v1/productose/2",
					"protocol": "http",
					"host": [
						"localhost"
					],
					"port": "9999",
					"path": [
						"entregable1",
						"v1",
						"productose",
						"2"
					]
				}
			},
			"response": []
		},
		{
			"name": "EntityUpdatePrecioProducto1 Patch",
			"request": {
				"method": "PUT",
				"header": [],
				"url": {
					"raw": "http://localhost:9999/entregable1/v1/productose/2",
					"protocol": "http",
					"host": [
						"localhost"
					],
					"port": "9999",
					"path": [
						"entregable1",
						"v1",
						"productose",
						"2"
					]
				}
			},
			"response": []
		},
		{
			"name": "EntityDeleteProducto1",
			"request": {
				"method": "PUT",
				"header": [],
				"url": {
					"raw": "http://localhost:9999/entregable1/v1/productose/2",
					"protocol": "http",
					"host": [
						"localhost"
					],
					"port": "9999",
					"path": [
						"entregable1",
						"v1",
						"productose",
						"2"
					]
				}
			},
			"response": []
		}
	]
}